Fragmentation profiles
…
Past versions of reads-2.png

Version

Author

Date

ad5f281

shay-279

2025-11-19

# A tibble: 348 × 9
   type            width training mean_diff low_diff high_diff     n type2 set  
   <chr>           <int> <chr>        <dbl>    <dbl>     <dbl> <dbl> <fct> <fct>
 1 Advanced Fibro…   164 Validat…   0.00388  0.00349   0.00426    85 "Adv… Vali…
 2 Advanced Fibro…   165 Validat…   0.00376  0.00355   0.00396    85 "Adv… Vali…
 3 Advanced Fibro…   163 Validat…   0.00344  0.00299   0.00389    85 "Adv… Vali…
 4 Advanced Fibro…   158 Validat…   0.00334  0.00261   0.00408    85 "Adv… Vali…
 5 Advanced Fibro…   159 Validat…   0.00326  0.00263   0.00390    85 "Adv… Vali…
 6 Advanced Fibro…   157 Validat…   0.00325  0.00248   0.00403    85 "Adv… Vali…
 7 Advanced Fibro…   160 Validat…   0.00306  0.00252   0.00359    85 "Adv… Vali…
 8 Advanced Fibro…   156 Validat…   0.00306  0.00229   0.00383    85 "Adv… Vali…
 9 Advanced Fibro…   140 Validat…   0.00305  0.00215   0.00394    85 "Adv… Vali…
10 Advanced Fibro…   162 Validat…   0.00303  0.00259   0.00348    85 "Adv… Vali…
# ℹ 338 more rows

# A tibble: 348 × 9
   type            width training mean_diff low_diff high_diff     n type2 set  
   <chr>           <int> <chr>        <dbl>    <dbl>     <dbl> <dbl> <fct> <fct>
 1 Advanced Fibro…   178 Validat…  -0.00435 -0.00565  -0.00306    85 "Adv… Vali…
 2 Advanced Fibro…   179 Validat…  -0.00432 -0.00548  -0.00315    85 "Adv… Vali…
 3 Advanced Fibro…   177 Validat…  -0.00428 -0.00568  -0.00289    85 "Adv… Vali…
 4 Advanced Fibro…   180 Validat…  -0.00423 -0.00525  -0.00320    85 "Adv… Vali…
 5 Advanced Fibro…   181 Validat…  -0.00411 -0.00499  -0.00323    85 "Adv… Vali…
 6 Advanced Fibro…   176 Validat…  -0.00408 -0.00553  -0.00262    85 "Adv… Vali…
 7 Advanced Fibro…   182 Validat…  -0.00397 -0.00473  -0.00322    85 "Adv… Vali…
 8 Advanced Fibro…   183 Validat…  -0.00386 -0.00450  -0.00322    85 "Adv… Vali…
 9 Advanced Fibro…   184 Validat…  -0.00378 -0.00432  -0.00323    85 "Adv… Vali…
10 Advanced Fibro…   185 Validat…  -0.00373 -0.00420  -0.00326    85 "Adv… Vali…
# ℹ 338 more rows
…
